<svg width="426" height="315" viewBox="0 0 426 315" fill="none" xmlns="http://www.w3.org/2000/svg">
<path d="M355.37 284.127H54.2097C45.9842 284.127 39.292 278.067 39.292 270.618V88.3144C39.3307 86.7951 39.8254 85.3225 40.7119 84.088C41.5984 82.8536 42.8357 81.9143 44.263 81.3921L184.489 25.2992C197.375 20.2015 211.716 20.1943 224.606 25.2791L365.308 81.3947C366.738 81.9156 367.977 82.8547 368.865 84.0899C369.754 85.3251 370.249 86.7991 370.288 88.3199V270.618C370.288 278.067 363.596 284.127 355.37 284.127Z" fill="#4475F1"/>
<path d="M341.193 284.792V181.762C341.193 168.325 337.168 155.438 330.003 145.936C322.838 136.434 313.12 131.096 302.987 131.096H106.938C96.8047 131.096 87.0868 136.434 79.9218 145.936C72.7567 155.438 68.7315 168.325 68.7314 181.762V284.792H341.193Z" fill="white"/>
<path d="M358.834 107.094L215.988 54.73C207.306 51.5474 197.776 51.5474 189.094 54.73L46.2474 107.094C43.2367 108.198 40.0041 108.558 36.8242 108.145C33.6443 107.732 30.6112 106.558 27.9824 104.722C25.3536 102.885 23.2068 100.442 21.7246 97.5984C20.2423 94.755 19.4683 91.5958 19.4683 88.3892V88.3892C19.4683 84.3085 20.7213 80.3263 23.058 76.981C25.3947 73.6357 28.7023 71.0886 32.5336 69.6841L189.094 12.2928C197.776 9.1101 207.306 9.1101 215.988 12.2928L372.548 69.6841C376.379 71.0886 379.687 73.6357 382.024 76.981C384.36 80.3263 385.613 84.3085 385.613 88.3892V88.3892C385.613 91.5958 384.839 94.755 383.357 97.5984C381.875 100.442 379.728 102.885 377.099 104.722C374.47 106.558 371.437 107.732 368.257 108.145C365.078 108.558 361.845 108.198 358.834 107.094Z" fill="#3F3D56"/>
<path d="M183.583 65.2888C183.583 65.2888 172.737 76.146 181.175 89.4109C181.175 89.4109 183.583 93.0339 190.829 96.6454C190.829 96.6454 193.952 97.6902 196.337 104.595C196.666 105.56 196.909 106.552 197.064 107.559L198.517 116.497H215.382L210.124 99.0985C209.577 97.4418 209.499 95.6658 209.9 93.9677C210.301 92.2696 211.165 90.7159 212.396 89.4792C213.677 88.1818 214.729 86.6764 215.507 85.0272C217.472 80.6775 219.55 72.6708 213.077 65.5727C211.261 63.6181 209.058 62.0633 206.608 61.0074C204.158 59.9515 201.515 59.4177 198.847 59.44C197.093 59.3859 195.355 59.7766 193.793 60.5757L199.903 73.6248C200.065 73.9782 200.083 74.3807 199.954 74.7472C199.824 75.1138 199.558 75.4158 199.21 75.5896L192.214 79.0875C192.038 79.1772 191.845 79.2309 191.648 79.2458C191.45 79.2606 191.252 79.2361 191.064 79.1738C190.876 79.1115 190.702 79.0127 190.553 78.8828C190.403 78.753 190.281 78.5948 190.193 78.4174L183.583 65.2888Z" fill="white"/>
<path d="M145.917 261.268C144.596 261.269 143.329 261.795 142.395 262.729C141.461 263.663 140.936 264.929 140.934 266.25V277.908C140.936 279.229 141.461 280.495 142.395 281.429C143.329 282.364 144.665 283.158 145.986 283.16H148.933H152.301C153.622 283.158 154.824 282.364 155.759 281.429C156.693 280.495 157.218 279.229 157.22 277.908V266.25C157.218 264.929 156.693 263.663 155.759 262.729C154.824 261.795 153.558 261.269 152.237 261.268H145.917Z" fill="#3F3D56"/>
<path d="M262.925 283.259H256.605C255.181 283.257 253.816 282.691 252.81 281.684C251.803 280.677 251.236 279.312 251.235 277.888V266.231C251.236 264.807 251.803 263.442 252.81 262.435C253.816 261.428 255.181 260.862 256.605 260.86H262.925C264.349 260.862 265.714 261.428 266.721 262.435C267.728 263.442 268.294 264.807 268.296 266.231V277.888C268.294 279.312 267.728 280.677 266.721 281.684C265.714 282.691 264.349 283.257 262.925 283.259V283.259Z" fill="#3F3D56"/>
<path d="M258.732 273.925H149.902C144.949 273.925 140.919 271.005 140.919 267.417V246.489L146.321 240.8H263.363L267.714 246.501V267.417C267.714 271.005 263.685 273.925 258.732 273.925Z" fill="#2F2E41"/>
<path d="M262.855 251.27H146.942L145.764 233.207L146.514 231.359L150.871 220.637H258.142L264.034 232.813L262.855 251.27Z" fill="#2F2E41"/>
<path d="M263.837 232.851L262.972 246.422H237.47V236.341L263.112 231.354L263.837 232.851Z" fill="white"/>
<path d="M171.94 236.341V246.422H146.821L145.96 233.239L146.693 231.432L171.94 236.341Z" fill="white"/>
<path d="M257.496 223.739H151.516L162.82 186.061C163.281 184.505 164.23 183.138 165.527 182.163C166.825 181.188 168.402 180.657 170.025 180.647L240.211 179.978C241.907 179.962 243.56 180.513 244.906 181.545C246.252 182.577 247.214 184.029 247.639 185.671L257.496 223.739Z" fill="#2F2E41"/>
<path d="M249.337 220.177L159.657 219.113C159.544 219.112 159.433 219.084 159.332 219.032C159.231 218.979 159.144 218.904 159.078 218.812C159.012 218.72 158.968 218.614 158.95 218.502C158.933 218.39 158.941 218.276 158.976 218.168L167.573 191.344C167.62 191.198 167.712 191.071 167.836 190.98C167.96 190.89 168.11 190.841 168.263 190.841H240.394C240.548 190.841 240.697 190.89 240.821 190.98C240.945 191.07 241.038 191.198 241.084 191.344L250.036 219.231C250.071 219.34 250.079 219.456 250.061 219.57C250.042 219.683 249.997 219.79 249.929 219.883C249.86 219.975 249.771 220.05 249.668 220.101C249.566 220.152 249.452 220.178 249.337 220.177V220.177Z" fill="white"/>
<path d="M155.148 223.554H139.25V220.06C139.252 218.93 139.701 217.847 140.5 217.049C141.299 216.25 142.382 215.801 143.511 215.799H155.148V223.554Z" fill="#2F2E41"/>
<path d="M270.502 222.712H254.604V214.957H266.242C267.371 214.958 268.454 215.408 269.253 216.206C270.052 217.005 270.501 218.088 270.502 219.218V222.712Z" fill="#2F2E41"/>
<path d="M118.08 195.985C130.826 195.985 141.159 185.652 141.159 172.905C141.159 160.159 130.826 149.826 118.08 149.826C105.333 149.826 95 160.159 95 172.905C95 185.652 105.333 195.985 118.08 195.985Z" fill="#4475F1"/>
<path d="M115.88 182.648L108.972 173.766L112.989 170.641L116.26 174.847L127.31 163.183L131.005 166.683L115.88 182.648Z" fill="white"/>
<path d="M425.012 284.792H1.48937C1.33161 284.792 1.18032 284.727 1.06876 284.611C0.95721 284.494 0.894531 284.337 0.894531 284.173C0.894531 284.009 0.95721 283.851 1.06876 283.735C1.18032 283.619 1.33161 283.554 1.48937 283.554H425.012C425.169 283.554 425.321 283.619 425.432 283.735C425.544 283.851 425.606 284.009 425.606 284.173C425.606 284.337 425.544 284.494 425.432 284.611C425.321 284.727 425.169 284.792 425.012 284.792Z" fill="#C9C9C9"/>
<path d="M326.866 248.421C323.677 244.179 321.156 239.474 319.39 234.469C319.288 234.17 319.295 233.844 319.411 233.549C319.526 233.255 319.742 233.011 320.021 232.861L330.934 227.013C331.111 226.918 331.307 226.864 331.507 226.856C331.708 226.848 331.908 226.886 332.091 226.966C332.278 227.048 332.444 227.171 332.577 227.326C332.709 227.481 332.805 227.664 332.855 227.862C334.126 232.685 336.513 237.141 339.825 240.87C339.962 241.022 340.062 241.202 340.117 241.399C340.173 241.595 340.184 241.801 340.148 242.002C340.113 242.2 340.034 242.387 339.916 242.549C339.798 242.712 339.645 242.845 339.468 242.939L328.555 248.787C328.275 248.936 327.952 248.981 327.643 248.914C327.334 248.847 327.059 248.672 326.866 248.421V248.421Z" fill="#CCCCCC"/>
<path d="M327.611 247.862C327.669 247.935 327.752 247.986 327.844 248.005C327.936 248.024 328.031 248.01 328.114 247.966L339.028 242.118C339.081 242.091 339.127 242.051 339.162 242.003C339.197 241.954 339.22 241.899 339.23 241.84C339.242 241.778 339.239 241.714 339.221 241.653C339.204 241.592 339.172 241.536 339.13 241.489C335.72 237.651 333.262 233.063 331.954 228.098C331.939 228.037 331.91 227.98 331.869 227.932C331.828 227.883 331.777 227.845 331.719 227.82C331.664 227.796 331.605 227.784 331.545 227.787C331.485 227.789 331.427 227.806 331.374 227.835L320.461 233.682C320.378 233.727 320.314 233.799 320.279 233.886C320.244 233.973 320.24 234.07 320.269 234.159C322.003 239.075 324.479 243.696 327.611 247.862V247.862Z" fill="white"/>
<path d="M331.651 235.359L325.707 237.982C325.481 238.082 325.225 238.088 324.994 237.998C324.764 237.909 324.578 237.732 324.478 237.506L324.331 237.173C324.232 236.947 324.226 236.691 324.315 236.461C324.405 236.23 324.582 236.045 324.807 235.945L330.751 233.321C330.977 233.222 331.234 233.216 331.464 233.305C331.694 233.394 331.88 233.571 331.98 233.797L332.127 234.13C332.226 234.356 332.232 234.613 332.143 234.843C332.054 235.073 331.877 235.259 331.651 235.359V235.359Z" fill="#CCCCCC"/>
<path d="M333.824 239.396L327.88 242.02C327.654 242.119 327.398 242.125 327.168 242.036C326.937 241.946 326.752 241.769 326.652 241.544L326.505 241.21C326.405 240.984 326.4 240.728 326.489 240.498C326.578 240.268 326.755 240.082 326.981 239.982L332.925 237.358C333.151 237.259 333.407 237.253 333.637 237.342C333.868 237.432 334.053 237.608 334.153 237.834L334.3 238.167C334.4 238.393 334.405 238.65 334.316 238.88C334.227 239.11 334.05 239.296 333.824 239.396V239.396Z" fill="#CCCCCC"/>
<path d="M319.884 236.032C319.474 235.768 319.126 235.418 318.866 235.005C318.606 234.593 318.44 234.128 318.379 233.644C318.318 233.16 318.364 232.669 318.513 232.205C318.662 231.741 318.912 231.315 319.243 230.957L316.737 195.385L323.957 196.085L324.156 230.921C324.719 231.518 325.044 232.302 325.069 233.122C325.094 233.943 324.816 234.744 324.29 235.374C323.763 236.004 323.024 236.419 322.212 236.54C321.4 236.662 320.572 236.481 319.884 236.032L319.884 236.032Z" fill="#A0616A"/>
<path d="M318.371 207.337C318.202 207.216 318.063 207.058 317.963 206.875C317.863 206.692 317.805 206.489 317.794 206.281L317.265 196.694C317.213 195.744 317.514 194.808 318.111 194.067C318.707 193.326 319.557 192.832 320.496 192.681C321.435 192.529 322.397 192.731 323.197 193.247C323.996 193.763 324.576 194.556 324.825 195.474L327.149 204.046C327.246 204.404 327.197 204.785 327.012 205.107C326.828 205.428 326.524 205.663 326.166 205.761L319.555 207.553C319.354 207.608 319.144 207.617 318.939 207.58C318.734 207.542 318.54 207.46 318.371 207.337V207.337Z" fill="#4475F1"/>
<path d="M306.065 279.765H302.258L300.447 265.081H306.066L306.065 279.765Z" fill="#A0616A"/>
<path d="M299.539 278.677H306.881V283.3H294.916C294.916 282.693 295.036 282.092 295.268 281.531C295.5 280.97 295.841 280.46 296.27 280.031C296.699 279.602 297.209 279.261 297.77 279.029C298.331 278.797 298.932 278.677 299.539 278.677V278.677Z" fill="#2F2E41"/>
<path d="M320.349 279.765H316.542L314.731 265.081H320.35L320.349 279.765Z" fill="#A0616A"/>
<path d="M313.823 278.677H321.165V283.3H309.2C309.2 282.693 309.32 282.092 309.552 281.531C309.784 280.97 310.125 280.46 310.554 280.031C310.983 279.602 311.493 279.261 312.054 279.029C312.615 278.797 313.216 278.677 313.823 278.677Z" fill="#2F2E41"/>
<path d="M305.885 272.368L301.694 272.168C301.337 272.151 301.001 271.998 300.753 271.74C300.505 271.482 300.366 271.139 300.364 270.782C299.259 253.729 297.729 235.443 300.071 228.378C300.07 228.177 300.112 227.978 300.195 227.794C300.277 227.611 300.399 227.447 300.55 227.315C300.702 227.183 300.881 227.085 301.074 227.028C301.267 226.971 301.47 226.957 301.669 226.986L318.435 229.419C318.767 229.466 319.07 229.63 319.29 229.882C319.51 230.134 319.631 230.457 319.632 230.792C321.773 239.156 321.869 254.324 321.788 270.083C321.79 270.268 321.755 270.451 321.685 270.621C321.615 270.792 321.513 270.947 321.383 271.078C321.253 271.209 321.098 271.313 320.928 271.384C320.758 271.455 320.575 271.491 320.391 271.491H315.873C315.54 271.493 315.217 271.374 314.963 271.158C314.71 270.941 314.543 270.641 314.493 270.311L311.705 252.591C311.664 252.331 311.531 252.095 311.33 251.927C311.129 251.758 310.874 251.668 310.611 251.673C310.349 251.677 310.097 251.777 309.902 251.953C309.708 252.129 309.583 252.37 309.552 252.63L307.339 271.138C307.298 271.477 307.134 271.789 306.878 272.016C306.623 272.243 306.293 272.368 305.952 272.37C305.93 272.37 305.908 272.369 305.885 272.368Z" fill="#2F2E41"/>
<path d="M308.835 230.794C305.14 228.741 302.253 228.201 300.861 228.063C300.676 228.045 300.497 227.989 300.334 227.9C300.171 227.811 300.028 227.689 299.913 227.543C299.796 227.396 299.71 227.226 299.66 227.045C299.61 226.863 299.598 226.673 299.624 226.487L303.641 196.661C303.873 194.916 304.547 193.26 305.599 191.849C306.651 190.438 308.047 189.32 309.654 188.601C311.209 187.886 312.922 187.581 314.628 187.715C316.334 187.849 317.978 188.417 319.403 189.365C319.541 189.457 319.676 189.55 319.808 189.646C321.449 190.848 322.697 192.509 323.396 194.419C324.094 196.33 324.211 198.404 323.732 200.381C321.269 210.459 320.422 226.981 320.278 230.191C320.266 230.465 320.174 230.729 320.013 230.95C319.852 231.171 319.629 231.34 319.372 231.435C317.856 231.985 316.256 232.27 314.644 232.276C312.613 232.289 310.612 231.778 308.835 230.794Z" fill="#4475F1"/>
<path d="M312.196 184.551C316.408 184.551 319.823 181.136 319.823 176.924C319.823 172.712 316.408 169.297 312.196 169.297C307.984 169.297 304.569 172.712 304.569 176.924C304.569 181.136 307.984 184.551 312.196 184.551Z" fill="#A0616A"/>
<path d="M317.593 182.958C316.17 184.474 313.528 183.66 313.343 181.59C313.328 181.429 313.329 181.267 313.346 181.106C313.441 180.189 313.971 179.357 313.844 178.388C313.816 178.147 313.726 177.918 313.583 177.721C312.45 176.203 309.788 178.4 308.718 177.026C308.062 176.183 308.833 174.856 308.33 173.914C307.665 172.671 305.697 173.284 304.463 172.603C303.089 171.846 303.171 169.739 304.075 168.457C305.178 166.894 307.111 166.06 309.02 165.94C310.929 165.82 312.825 166.336 314.607 167.03C316.632 167.819 318.64 168.91 319.886 170.69C321.401 172.856 321.547 175.767 320.789 178.299C320.328 179.839 318.755 181.72 317.593 182.958Z" fill="#2F2E41"/>
<path d="M323.632 190.372C323.499 189.745 322.353 188.888 320.714 188.189C318.078 187.122 315.228 186.692 312.395 186.935C309.562 187.178 306.827 188.086 304.411 189.587C304.243 189.596 304.082 189.66 303.953 189.769C303.825 189.879 303.736 190.027 303.7 190.192L298.185 214.584L297.468 217.76L296.993 219.863L296.276 223.03L295.894 224.722C295.869 224.83 295.868 224.943 295.891 225.051C295.913 225.16 295.958 225.262 296.024 225.352C296.089 225.442 296.173 225.516 296.269 225.571C296.366 225.626 296.473 225.659 296.583 225.669L320.397 227.725C320.419 227.725 320.443 227.728 320.465 227.728C320.662 227.727 320.85 227.651 320.993 227.516C321.136 227.382 321.223 227.198 321.235 227.001L321.462 223.552L321.704 219.863L321.81 218.263L322.049 214.584L323.635 190.413V190.391L323.632 190.372Z" fill="#4475F1"/>
<path d="M293.803 232.674C293.493 232.297 293.269 231.857 293.147 231.385C293.026 230.913 293.009 230.42 293.098 229.94C293.188 229.461 293.381 229.007 293.665 228.611C293.949 228.214 294.316 227.885 294.741 227.645L303.205 193.003L309.867 195.873L299.43 229.109C299.785 229.85 299.855 230.695 299.629 231.484C299.402 232.273 298.893 232.952 298.2 233.391C297.506 233.83 296.675 234 295.865 233.868C295.055 233.736 294.321 233.311 293.803 232.674L293.803 232.674Z" fill="#A0616A"/>
<path d="M299.589 201.728C299.496 201.541 299.446 201.336 299.442 201.128C299.439 200.92 299.483 200.713 299.57 200.524L303.568 191.794C303.964 190.929 304.666 190.241 305.539 189.863C306.412 189.486 307.394 189.445 308.296 189.748C309.198 190.051 309.955 190.678 310.422 191.507C310.889 192.336 311.033 193.308 310.825 194.236L308.889 202.904C308.808 203.266 308.587 203.58 308.274 203.779C307.961 203.977 307.582 204.044 307.221 203.963L300.536 202.47C300.332 202.425 300.142 202.335 299.978 202.206C299.814 202.078 299.681 201.914 299.589 201.728Z" fill="#4475F1"/>
</svg>
